{
  "Action": {
    "name": "StructuralHCPPipeline",
    "description": "This action results in running StructutalHCP Pipeline",
    "version": 1,
    "xsiType": "xnat:mrSessionData",
    "project": "TEST",
    "createdby": "mohana",
    "schedulerInfo": {
      "schedulerPath": "c:/data/xnat/pipeline/bin/schedule"
    },
    "pipelineInfo": {
      "pipelinePath": "catalog/HCP/StructuralHCP.xml"
    }
  }
}